TidyVerse Work 1
…
chars =  tibble(json = beer_response)
chars  %>% 
  unnest_wider(json)

# A tibble: 50 × 16
   id      name  brewery_type address_1 address_2 address_3 city  state_province
   <chr>   <chr> <chr>        <chr>     <chr>     <lgl>     <chr> <chr>         
 1 5128df… (405… micro        1716 Top… <NA>      NA        Norm… Oklahoma      
 2 9c5a66… (512… micro        407 Rada… <NA>      NA        Aust… Texas         
 3 34e8c6… 1 of… micro        8100 Was… <NA>      NA        Moun… Wisconsin     
 4 ef9707… 10 B… large        1501 E St <NA>      NA        San … California    
 5 6d14b2… 10 B… large        62970 18… <NA>      NA        Bend  Oregon        
 6 e2e78b… 10 B… large        1135 NW … <NA>      NA        Bend  Oregon        
 7 e43289… 10 B… large        1411 NW … <NA>      NA        Port… Oregon        
 8 9f1852… 10 B… large        62950 NE… <NA>      NA        Bend  Oregon        
 9 ea4f30… 10 B… large        826 W Ba… <NA>      NA        Boise Idaho         
10 1988eb… 10 B… large        2620 Wal… <NA>      NA        Denv… Colorado      
# ℹ 40 more rows
# ℹ 8 more variables: postal_code <chr>, country <chr>, longitude <chr>,
#   latitude <chr>, phone <chr>, website_url <chr>, state <chr>, street <chr>

I chose name , brewery_type, city, state,longitude, and latitude, because it was easier to plot data sets based on these variables. Also cleaning it would have been much simple set.

beer_characters  = chars %>% 
  unnest_wider(json) %>% 
  select(id, name , brewery_type, city, state,longitude, latitude)
beer_characters

# A tibble: 50 × 7
   id                          name  brewery_type city  state longitude latitude
   <chr>                       <chr> <chr>        <chr> <chr> <chr>     <chr>   
 1 5128df48-79fc-4f0f-8b52-d0… (405… micro        Norm… Okla… -97.4681… 35.2573…
 2 9c5a66c8-cc13-416f-a5d9-0a… (512… micro        Aust… Texas <NA>      <NA>    
 3 34e8c68b-6146-453f-a4b9-1f… 1 of… micro        Moun… Wisc… -87.8833… 42.7201…
 4 ef970757-fe42-416f-931d-72… 10 B… large        San … Cali… -117.129… 32.7148…
 5 6d14b220-8926-4521-8d19-b9… 10 B… large        Bend  Oreg… -121.281… 44.0868…
 6 e2e78bd8-80ff-4a61-a65c-3b… 10 B… large        Bend  Oreg… -121.328… 44.0575…
 7 e432899b-7f58-455f-9c7b-9a… 10 B… large        Port… Oreg… -122.685… 45.5259…
 8 9f1852da-c312-42da-9a31-09… 10 B… large        Bend  Oreg… -121.280… 44.0912…
 9 ea4f30c0-bce6-416b-8904-fa… 10 B… large        Boise Idaho -116.202… 43.6185…
10 1988eb86-f0a2-4674-ba04-02… 10 B… large        Denv… Colo… -104.985… 39.7592…
# ℹ 40 more rows
…
brewery_type_state <- beer_characters %>%
  count(state, brewery_type) %>%
  filter(!is.na(state))
brewery_type_state

# A tibble: 36 × 3
   state      brewery_type     n
   <chr>      <chr>        <int>
 1 Arizona    micro            3
 2 California closed           1
 3 California large            1
 4 California micro            2
 5 Colorado   brewpub          1
 6 Colorado   large            1
 7 Colorado   micro            1
 8 Colorado   proprietor       1
 9 Delaware   micro            1
10 Idaho      large            1
# ℹ 26 more rows
…
